，	34746
。	13943
、	8200
「	3543
」	3542
（	1966
）	1958
“	1051
”	1050
；	962
：	818
》	755
《	754
？	721
！	292
――	259
…	212
．	198
『	134
』	134
/	95
－－	63
／	59
.	43
〉	41
〈	41
∶	26
’	24
‘	20
－	17
＞	16
―	15
―――	10
──	8
＊	8
・	6
-	6
】	6
【	6
,	5
//	4
━━	4
:	4
＂	4
　	4
……	3
*	2
!	2
33	1
----	1
～	1
━	1
?	1
―－	1
`	1
tw	1
＆	1
~	1
＇	1
　*	1
＜	1
半穴式	1
